Visualizing data with tidyverse
…
---

class: split-40
count: false
.column[.content[

```r
*surveys_complete
```
]]
.column[.content[

```
# A tibble: 33,145 x 13
   record_id month   day  year plot_id species_id sex   hindfoot_length
       <dbl> <dbl> <dbl> <dbl>   <dbl> <chr>      <chr>           <dbl>
 1         1     7    16  1977       2 NL         M                  32
 2        72     8    19  1977       2 NL         M                  31
 3       588     2    18  1978       2 NL         M                  NA
 4       845     5     6  1978       2 NL         M                  32
 5       990     6     9  1978       2 NL         M                  NA
 6      1164     8     5  1978       2 NL         M                  34
 7      1261     9     4  1978       2 NL         M                  32
 8      1453    11     5  1978       2 NL         M                  NA
 9      1756     4    29  1979       2 NL         M                  33
10      1818     5    30  1979       2 NL         M                  32
#  with 33,135 more rows, and 5 more variables: weight <dbl>,
#   genus <chr>, species <chr>, taxa <chr>, plot_type <chr>
```
…
```r
surveys_complete %>%  
* count(year,
*       genus,
*       sex)
```
]]
.column[.content[

```
# A tibble: 462 x 4
    year genus       sex       n
   <dbl> <chr>       <chr> <int>
 1  1977 Chaetodipus F         4
 2  1977 Chaetodipus M         3
 3  1977 Dipodomys   F       172
 4  1977 Dipodomys   M       188
 5  1977 Dipodomys   <NA>      1
 6  1977 Neotoma     F         1
 7  1977 Neotoma     M         4
 8  1977 Onychomys   F         7
 9  1977 Onychomys   M         4
10  1977 Onychomys   <NA>      2
#  with 452 more rows
```
…
