Manipulating, analyzing and exporting data with tidyverse
…
---

class: split-40
count: false
.column[.content[

```r
*surveys
```
]]
.column[.content[

```
# A tibble: 34,786 x 13
   record_id month   day  year plot_id species_id sex   hindfoot_length
       <dbl> <dbl> <dbl> <dbl>   <dbl> <chr>      <chr>           <dbl>
 1         1     7    16  1977       2 NL         M                  32
 2        72     8    19  1977       2 NL         M                  31
 3       224     9    13  1977       2 NL         <NA>               NA
 4       266    10    16  1977       2 NL         <NA>               NA
 5       349    11    12  1977       2 NL         <NA>               NA
 6       363    11    12  1977       2 NL         <NA>               NA
 7       435    12    10  1977       2 NL         <NA>               NA
 8       506     1     8  1978       2 NL         <NA>               NA
 9       588     2    18  1978       2 NL         M                  NA
10       661     3    11  1978       2 NL         <NA>               NA
# … with 34,776 more rows, and 5 more variables: weight <dbl>,
#   genus <chr>, species <chr>, taxa <chr>, plot_type <chr>
```
…
```r
surveys %>%  
* filter(!is.na(weight),
*        !is.na(hindfoot_length),
*        !is.na(sex))
```
]]
.column[.content[

```
# A tibble: 30,676 x 13
   record_id month   day  year plot_id species_id sex   hindfoot_length
       <dbl> <dbl> <dbl> <dbl>   <dbl> <chr>      <chr>           <dbl>
 1       845     5     6  1978       2 NL         M                  32
 2      1164     8     5  1978       2 NL         M                  34
 3      1261     9     4  1978       2 NL         M                  32
 4      1756     4    29  1979       2 NL         M                  33
 5      1818     5    30  1979       2 NL         M                  32
 6      1882     7     4  1979       2 NL         M                  32
 7      2133    10    25  1979       2 NL         F                  33
 8      2184    11    17  1979       2 NL         F                  30
 9      2406     1    16  1980       2 NL         F                  33
10      3000     5    18  1980       2 NL         F                  31
# … with 30,666 more rows, and 5 more variables: weight <dbl>,
#   genus <chr>, species <chr>, taxa <chr>, plot_type <chr>
```
…
```r
surveys %>%  
  filter(!is.na(weight),  
         !is.na(hindfoot_length),  
         !is.na(sex)) %>%  
* count(species_id)
```
]]
.column[.content[

```
# A tibble: 24 x 2
   species_id     n
   <chr>      <int>
 1 BA            45
 2 DM          9727
 3 DO          2790
 4 DS          2023
 5 NL          1045
 6 OL           905
 7 OT          2081
 8 OX             5
 9 PB          2803
10 PE          1198
# … with 14 more rows
```
…
